{
  "diffEditor.ignoreTrimWhitespace": true,
  "diffEditor.renderSideBySide": true,
  "extensions.ignoreRecommendations": false,
  "workbench.iconTheme": "material-icon-theme",
  "window.smoothScrollingWorkaround": true,
  "auto-close-tag.SublimeText3Mode": true,
  "auto-close-tag.activationOnLanguage": [
      "xml",
      "php",
      "markdown",
      "html",
      "HTML (Eex)"
  ],
  "window.zoomLevel": 0,
  "glassit.alpha": 250,
  "workbench.sideBar.location": "left",
  "typescript.updateImportsOnFileMove.enabled": "never",
  "editor.minimap.enabled": true,
  "telemetry.enableTelemetry": false,
  "telemetry.enableCrashReporter": false,
  "files.autoSave": "off",
  "[typescript]": {
      "editor.codeActionsOnSave": {
          "source.organizeImports": true
      },
      "editor.defaultFormatter": "esbenp.prettier-vscode",
  },
  "[jsonc]": {
      "editor.defaultFormatter": "esbenp.prettier-vscode"
  },
  "prettier.tslintIntegration": true,
  "[json]": {
      "editor.defaultFormatter": "esbenp.prettier-vscode"
  },
  "editor.tabSize": 2,
  "prettier.printWidth": 150
}